%!PS-Adobe-3.0 EPSF-3.0
%%Creator: MATLAB, The MathWorks, Inc. Version 8.1.0.604 (R2013a). Operating System: Linux 3.13.0-24-generic #47-Ubuntu SMP Fri May 2 23:30:00 UTC 2014 x86_64.
%%Title: /mnt/90D60F9CD60F81A8/Малахов/5. аспирантура/ДИССЕРТАЦИЯ/Диссертация/fig/untitled.eps
%%CreationDate: 06/10/2016  12:31:02
%%DocumentNeededFonts: Helvetica
%%DocumentProcessColors: Cyan Magenta Yellow Black
%%LanguageLevel: 2
%%Pages: 1
%%BoundingBox:    74   294   536   497
%%EndComments

%%BeginProlog
% MathWorks dictionary
/MathWorks 160 dict begin
% definition operators
/bdef {bind def} bind def
/ldef {load def} bind def
/xdef {exch def} bdef
/xstore {exch store} bdef
% operator abbreviations
/c  /clip ldef
/cc /concat ldef
/cp /closepath ldef
/gr /grestore ldef
/gs /gsave ldef
/mt /moveto ldef
/np /newpath ldef
/cm /currentmatrix ldef
/sm /setmatrix ldef
/rm /rmoveto ldef
/rl /rlineto ldef
/s {show newpath} bdef
/sc {setcmykcolor} bdef
/sr /setrgbcolor ldef
/sg /setgray ldef
/w /setlinewidth ldef
/j /setlinejoin ldef
/cap /setlinecap ldef
/rc {rectclip} bdef
/rf {rectfill} bdef
% page state control
/pgsv () def
/bpage {/pgsv save def} bdef
/epage {pgsv restore} bdef
/bplot /gsave ldef
/eplot {stroke grestore} bdef
% orientation switch
/portraitMode 0 def /landscapeMode 1 def /rotateMode 2 def
% coordinate system mappings
/dpi2point 0 def
% font control
/FontSize 0 def
/FMS {/FontSize xstore findfont [FontSize 0 0 FontSize neg 0 0]
  makefont setfont} bdef
/reencode {exch dup where {pop load} {pop StandardEncoding} ifelse
  exch dup 3 1 roll findfont dup length dict begin
  { 1 index /FID ne {def}{pop pop} ifelse } forall
  /Encoding exch def currentdict end definefont pop} bdef
/isroman {findfont /CharStrings get /Agrave known} bdef
/FMSR {3 1 roll 1 index dup isroman {reencode} {pop pop} ifelse
  exch FMS} bdef
/csm {1 dpi2point div -1 dpi2point div scale neg translate
 dup landscapeMode eq {pop -90 rotate}
  {rotateMode eq {90 rotate} if} ifelse} bdef
% line types: solid, dotted, dashed, dotdash
/SO { [] 0 setdash } bdef
/DO { [.5 dpi2point mul 4 dpi2point mul] 0 setdash } bdef
/DA { [6 dpi2point mul] 0 setdash } bdef
/DD { [.5 dpi2point mul 4 dpi2point mul 6 dpi2point mul 4
  dpi2point mul] 0 setdash } bdef
% macros for lines and objects
/L {lineto stroke} bdef
/MP {3 1 roll moveto 1 sub {rlineto} repeat} bdef
/AP {{rlineto} repeat} bdef
/PDlw -1 def
/W {/PDlw currentlinewidth def setlinewidth} def
/PP {closepath eofill} bdef
/DP {closepath stroke} bdef
/MR {4 -2 roll moveto dup  0 exch rlineto exch 0 rlineto
  neg 0 exch rlineto closepath} bdef
/FR {MR stroke} bdef
/PR {MR fill} bdef
/L1i {{currentfile picstr readhexstring pop} image} bdef
/tMatrix matrix def
/MakeOval {newpath tMatrix currentmatrix pop translate scale
0 0 1 0 360 arc tMatrix setmatrix} bdef
/FO {MakeOval stroke} bdef
/PO {MakeOval fill} bdef
/PD {currentlinewidth 2 div 0 360 arc fill
   PDlw -1 eq not {PDlw w /PDlw -1 def} if} def
/FA {newpath tMatrix currentmatrix pop translate scale
  0 0 1 5 -2 roll arc tMatrix setmatrix stroke} bdef
/PA {newpath tMatrix currentmatrix pop	translate 0 0 moveto scale
  0 0 1 5 -2 roll arc closepath tMatrix setmatrix fill} bdef
/FAn {newpath tMatrix currentmatrix pop translate scale
  0 0 1 5 -2 roll arcn tMatrix setmatrix stroke} bdef
/PAn {newpath tMatrix currentmatrix pop translate 0 0 moveto scale
  0 0 1 5 -2 roll arcn closepath tMatrix setmatrix fill} bdef
/vradius 0 def /hradius 0 def /lry 0 def
/lrx 0 def /uly 0 def /ulx 0 def /rad 0 def
/MRR {/vradius xdef /hradius xdef /lry xdef /lrx xdef /uly xdef
  /ulx xdef newpath tMatrix currentmatrix pop ulx hradius add uly
  vradius add translate hradius vradius scale 0 0 1 180 270 arc 
  tMatrix setmatrix lrx hradius sub uly vradius add translate
  hradius vradius scale 0 0 1 270 360 arc tMatrix setmatrix
  lrx hradius sub lry vradius sub translate hradius vradius scale
  0 0 1 0 90 arc tMatrix setmatrix ulx hradius add lry vradius sub
  translate hradius vradius scale 0 0 1 90 180 arc tMatrix setmatrix
  closepath} bdef
/FRR {MRR stroke } bdef
/PRR {MRR fill } bdef
/MlrRR {/lry xdef /lrx xdef /uly xdef /ulx xdef /rad lry uly sub 2 div def
  newpath tMatrix currentmatrix pop ulx rad add uly rad add translate
  rad rad scale 0 0 1 90 270 arc tMatrix setmatrix lrx rad sub lry rad
  sub translate rad rad scale 0 0 1 270 90 arc tMatrix setmatrix
  closepath} bdef
/FlrRR {MlrRR stroke } bdef
/PlrRR {MlrRR fill } bdef
/MtbRR {/lry xdef /lrx xdef /uly xdef /ulx xdef /rad lrx ulx sub 2 div def
  newpath tMatrix currentmatrix pop ulx rad add uly rad add translate
  rad rad scale 0 0 1 180 360 arc tMatrix setmatrix lrx rad sub lry rad
  sub translate rad rad scale 0 0 1 0 180 arc tMatrix setmatrix
  closepath} bdef
/FtbRR {MtbRR stroke } bdef
/PtbRR {MtbRR fill } bdef
/stri 6 array def /dtri 6 array def
/smat 6 array def /dmat 6 array def
/tmat1 6 array def /tmat2 6 array def /dif 3 array def
/asub {/ind2 exch def /ind1 exch def dup dup
  ind1 get exch ind2 get sub exch } bdef
/tri_to_matrix {
  2 0 asub 3 1 asub 4 0 asub 5 1 asub
  dup 0 get exch 1 get 7 -1 roll astore } bdef
/compute_transform {
  dmat dtri tri_to_matrix tmat1 invertmatrix 
  smat stri tri_to_matrix tmat2 concatmatrix } bdef
/ds {stri astore pop} bdef
/dt {dtri astore pop} bdef
/db {2 copy /cols xdef /rows xdef mul dup 3 mul string
  currentfile 
  3 index 0 eq {/ASCIIHexDecode filter}
  {/ASCII85Decode filter 3 index 2 eq {/RunLengthDecode filter} if }
  ifelse exch readstring pop
  dup 0 3 index getinterval /rbmap xdef
  dup 2 index dup getinterval /gbmap xdef
  1 index dup 2 mul exch getinterval /bbmap xdef pop pop}bdef
/it {gs np dtri aload pop moveto lineto lineto cp c
  cols rows 8 compute_transform 
  rbmap gbmap bbmap true 3 colorimage gr}bdef
/il {newpath moveto lineto stroke}bdef
currentdict end def
%%EndProlog

%%BeginSetup
MathWorks begin

0 cap

end
%%EndSetup

%%Page: 1 1
%%BeginPageSetup
%%PageBoundingBox:    74   294   536   497
MathWorks begin
bpage
%%EndPageSetup

%%BeginObject: obj1
bplot

/dpi2point 12 def
portraitMode 0888 5964 csm

    0     0  5549  2429 rc
85 dict begin %Colortable dictionary
/c0 { 0.000000 0.000000 0.000000 sr} bdef
/c1 { 1.000000 1.000000 1.000000 sr} bdef
/c2 { 0.900000 0.000000 0.000000 sr} bdef
/c3 { 0.000000 0.820000 0.000000 sr} bdef
/c4 { 0.000000 0.000000 0.800000 sr} bdef
/c5 { 0.910000 0.820000 0.320000 sr} bdef
/c6 { 1.000000 0.260000 0.820000 sr} bdef
/c7 { 0.000000 0.820000 0.820000 sr} bdef
c0
1 j
1 sg
   0    0 5550 2430 rf
6 w
0 1980 4301 0 0 -1980 721 2162 4 MP
PP
-4301 0 0 1980 4301 0 0 -1980 721 2162 5 MP stroke
4 w
DO
SO
6 w
 721 2162 mt 5022 2162 L
 721  182 mt 5022  182 L
 721 2162 mt  721  182 L
5022 2162 mt 5022  182 L
 721 2162 mt 5022 2162 L
 721 2162 mt  721  182 L
 721 2162 mt  721 2118 L
 721  182 mt  721  225 L
1198 2162 mt 1198 2118 L
1198  182 mt 1198  225 L
1676 2162 mt 1676 2118 L
1676  182 mt 1676  225 L
2154 2162 mt 2154 2118 L
2154  182 mt 2154  225 L
2632 2162 mt 2632 2118 L
2632  182 mt 2632  225 L
3110 2162 mt 3110 2118 L
3110  182 mt 3110  225 L
3588 2162 mt 3588 2118 L
3588  182 mt 3588  225 L
4066 2162 mt 4066 2118 L
4066  182 mt 4066  225 L
4544 2162 mt 4544 2118 L
4544  182 mt 4544  225 L
5022 2162 mt 5022 2118 L
5022  182 mt 5022  225 L
 721 2162 mt  764 2162 L
5022 2162 mt 4978 2162 L
 721 1914 mt  764 1914 L
5022 1914 mt 4978 1914 L
 721 1667 mt  764 1667 L
5022 1667 mt 4978 1667 L
 721 1419 mt  764 1419 L
5022 1419 mt 4978 1419 L
 721 1172 mt  764 1172 L
5022 1172 mt 4978 1172 L
 721  924 mt  764  924 L
5022  924 mt 4978  924 L
 721  677 mt  764  677 L
5022  677 mt 4978  677 L
 721  429 mt  764  429 L
5022  429 mt 4978  429 L
 721  182 mt  764  182 L
5022  182 mt 4978  182 L
 721 2162 mt 5022 2162 L
 721  182 mt 5022  182 L
 721 2162 mt  721  182 L
5022 2162 mt 5022  182 L
gs 721 182 4302 1981 rc
24 w
0 sg
0 -990 1676 1667 2 MP stroke
gs 1530 531 293 1283 rc
  60   60 1676 1667 PO
  60   60 1676  677 PO
  60   60 1676 1667 FO
  60   60 1676  677 FO
gr

478 0 478 0 1198 1172 3 MP stroke
gs 1052 1026 1249 293 rc
  60   60 1198 1172 PO
  60   60 1676 1172 PO
  60   60 2154 1172 PO
  60   60 1198 1172 FO
  60   60 1676 1172 FO
  60   60 2154 1172 FO
gr

DA
6 w
0 -1980 2632 2162 2 MP stroke
SO
24 w
478 0 0 -495 3110 1419 3 MP stroke
gs 2964 778 771 788 rc
  60   60 3110 1419 PO
  60   60 3110  924 PO
  60   60 3588  924 PO
  60   60 3110 1419 FO
  60   60 3110  924 FO
  60   60 3588  924 FO
gr

0 -495 478 0 3110 1419 3 MP stroke
gs 2964 778 771 788 rc
  60   60 3110 1419 PO
  60   60 3588 1419 PO
  60   60 3588  924 PO
  60   60 3110 1419 FO
  60   60 3588 1419 FO
  60   60 3588  924 FO
gr

DA
6 w
0 -1980 4066 2162 2 MP stroke
SO
24 w
0 -495 0 -495 4544 1667 3 MP stroke
gs 4398 531 293 1283 rc
  60   60 4544 1667 PO
  60   60 4544 1172 PO
  60   60 4544  677 PO
  60   60 4544 1667 FO
  60   60 4544 1172 FO
  60   60 4544  677 FO
gr

6 w
gr

0 sg
%%IncludeResource: font Helvetica
/Helvetica /ISOLatin1Encoding 144 FMSR

 978  445 mt 
(a\)) s
1780 1330 mt 
(1) s
2106 1083 mt 
(m=4) s
1021 1262 mt 
(0) s
2908  444 mt 
(b\)) s
2957 1552 mt 
(0) s
3648  901 mt 
(2) s
1743  882 mt 
(t) s
%%IncludeResource: font Helvetica
/Helvetica /ISOLatin1Encoding 108 FMSR

1783  954 mt 
(12) s
%%IncludeResource: font Helvetica
/Helvetica /ISOLatin1Encoding 144 FMSR

3697 1207 mt 
(t) s
%%IncludeResource: font Helvetica
/Helvetica /ISOLatin1Encoding 108 FMSR

3737 1279 mt 
(12) s
%%IncludeResource: font Helvetica
/Helvetica /ISOLatin1Encoding 144 FMSR

3284 1577 mt 
(t) s
%%IncludeResource: font Helvetica
/Helvetica /ISOLatin1Encoding 108 FMSR

3324 1649 mt 
(01) s
%%IncludeResource: font Helvetica
/Helvetica /ISOLatin1Encoding 144 FMSR

1270  996 mt 
(t) s
%%IncludeResource: font Helvetica
/Helvetica /ISOLatin1Encoding 108 FMSR

1310 1068 mt 
(01) s
%%IncludeResource: font Helvetica
/Helvetica /ISOLatin1Encoding 144 FMSR

1649  478 mt 
(m=2) s
1611 1869 mt 
(m=3) s
3603 1601 mt 
(l=1) s
2885  743 mt 
(l=3) s
4577  522 mt 
(0) s
4694 1811 mt 
(3) s
4691 1221 mt 
(l=1) s
4665  874 mt 
(t) s
%%IncludeResource: font Helvetica
/Helvetica /ISOLatin1Encoding 108 FMSR

4705  946 mt 
(01) s
%%IncludeResource: font Helvetica
/Helvetica /ISOLatin1Encoding 144 FMSR

4196  420 mt 
(c\)) s

end %%Color Dict

eplot
%%EndObject

epage
end

showpage

%%Trailer
%%EOF
