\beamer@endinputifotherversion {3.36pt}
\select@language {russian}
\beamer@sectionintoc {1}{\IeC {\CYRV }\IeC {\cyrv }\IeC {\cyre }\IeC {\cyrd }\IeC {\cyre }\IeC {\cyrn }\IeC {\cyri }\IeC {\cyre }}{2}{0}{1}
\beamer@sectionintoc {2}{\IeC {\CYRG }\IeC {\cyrl }\IeC {\cyra }\IeC {\cyrv }\IeC {\cyra } 1. \IeC {\CYRS }\IeC {\cyri }\IeC {\cyrm }\IeC {\cyrm }\IeC {\cyre }\IeC {\cyrt }\IeC {\cyrr }\IeC {\cyri }\IeC {\cyrya } \IeC {\cyrs }\IeC {\cyrv }\IeC {\cyre }\IeC {\cyrr }\IeC {\cyrh }\IeC {\cyrp }\IeC {\cyrr }\IeC {\cyro }\IeC {\cyrv }\IeC {\cyro }\IeC {\cyrd }\IeC {\cyrya }\IeC {\cyrshch }\IeC {\cyre }\IeC {\cyrishrt } \IeC {\cyrshch }\IeC {\cyre }\IeC {\cyrl }\IeC {\cyri } \IeC {\cyrv } \IeC {\cyro }\IeC {\cyrd }\IeC {\cyrn }\IeC {\cyro }\IeC {\cyrz }\IeC {\cyro }\IeC {\cyrn }\IeC {\cyrn }\IeC {\cyro }\IeC {\cyrishrt } \IeC {\cyrm }\IeC {\cyro }\IeC {\cyrd }\IeC {\cyre }\IeC {\cyrl }\IeC {\cyri } \IeC {\CYRH }\IeC {\cyra }\IeC {\cyrb }\IeC {\cyrb }\IeC {\cyra }\IeC {\cyrr }\IeC {\cyrd }\IeC {\cyra }}{3}{0}{2}
\beamer@sectionintoc {3}{\IeC {\CYRG }\IeC {\cyrl }\IeC {\cyra }\IeC {\cyrv }\IeC {\cyra } 2. \IeC {\CYREREV }\IeC {\cyrf }\IeC {\cyrf }\IeC {\cyre }\IeC {\cyrk }\IeC {\cyrt }\IeC {\cyri }\IeC {\cyrv }\IeC {\cyrn }\IeC {\cyro }\IeC {\cyre } \IeC {\cyrk }\IeC {\cyru }\IeC {\cyrl }\IeC {\cyro }\IeC {\cyrn }\IeC {\cyro }\IeC {\cyrv }\IeC {\cyrs }\IeC {\cyrk }\IeC {\cyro }\IeC {\cyre } \IeC {\cyrv }\IeC {\cyrz }\IeC {\cyra }\IeC {\cyri }\IeC {\cyrm }\IeC {\cyro }\IeC {\cyrd }\IeC {\cyre }\IeC {\cyrishrt }\IeC {\cyrs }\IeC {\cyrt }\IeC {\cyrv }\IeC {\cyri }\IeC {\cyre } \IeC {\cyrv } \IeC {\cyrk }\IeC {\cyru }\IeC {\cyrp }\IeC {\cyrr }\IeC {\cyra }\IeC {\cyrt }\IeC {\cyra }\IeC {\cyrh } }{5}{0}{3}
\beamer@sectionintoc {4}{\IeC {\CYRG }\IeC {\cyrl }\IeC {\cyra }\IeC {\cyrv }\IeC {\cyra } 3. \IeC {\CYRD }\IeC {\cyri }\IeC {\cyrn }\IeC {\cyra }\IeC {\cyrm }\IeC {\cyri }\IeC {\cyrch }\IeC {\cyre }\IeC {\cyrs }\IeC {\cyrk }\IeC {\cyra }\IeC {\cyrya } \IeC {\cyrs }\IeC {\cyrp }\IeC {\cyri }\IeC {\cyrn }\IeC {\cyro }\IeC {\cyrv }\IeC {\cyra }\IeC {\cyrya } \IeC {\cyrv }\IeC {\cyro }\IeC {\cyrs }\IeC {\cyrp }\IeC {\cyrr }\IeC {\cyri }\IeC {\cyri }\IeC {\cyrm }\IeC {\cyrch }\IeC {\cyri }\IeC {\cyrv }\IeC {\cyro }\IeC {\cyrs }\IeC {\cyrt }\IeC {\cyrsftsn } \IeC {\cyrv } \IeC {\cyro }\IeC {\cyrb }\IeC {\cyro }\IeC {\cyrb }\IeC {\cyrshch }\IeC {\cyre }\IeC {\cyrn }\IeC {\cyrn }\IeC {\cyro }\IeC {\cyrishrt } $t- J$ \IeC {\cyrm }\IeC {\cyro }\IeC {\cyrd }\IeC {\cyre }\IeC {\cyrl }\IeC {\cyri }}{9}{0}{4}
\beamer@sectionintoc {5}{\IeC {\CYRG }\IeC {\cyrl }\IeC {\cyra }\IeC {\cyrv }\IeC {\cyra } 4. \IeC {\CYRR }\IeC {\cyra }\IeC {\cyrs }\IeC {\cyrch }\IeC {\cyre }\IeC {\cyrt } \IeC {\cyrd }\IeC {\cyri }\IeC {\cyrs }\IeC {\cyrp }\IeC {\cyre }\IeC {\cyrr }\IeC {\cyrs }\IeC {\cyri }\IeC {\cyri } \IeC {\cyrs }\IeC {\cyrv }\IeC {\cyre }\IeC {\cyrr }\IeC {\cyrh }\IeC {\cyrp }\IeC {\cyrr }\IeC {\cyro }\IeC {\cyrv }\IeC {\cyro }\IeC {\cyrd }\IeC {\cyrya }\IeC {\cyrshch }\IeC {\cyre }\IeC {\cyrishrt } \IeC {\cyrshch }\IeC {\cyre }\IeC {\cyrl }\IeC {\cyri } \IeC {\cyrv } \IeC {\cyrd }\IeC {\cyrery }\IeC {\cyrr }\IeC {\cyro }\IeC {\cyrch }\IeC {\cyrn }\IeC {\cyro }-\IeC {\cyrd }\IeC {\cyro }\IeC {\cyrp }\IeC {\cyri }\IeC {\cyrr }\IeC {\cyro }\IeC {\cyrv }\IeC {\cyra }\IeC {\cyrn }\IeC {\cyrn }\IeC {\cyrery }\IeC {\cyrh } \IeC {\cyrk }\IeC {\cyru }\IeC {\cyrp }\IeC {\cyrr }\IeC {\cyra }\IeC {\cyrt }\IeC {\cyra }\IeC {\cyrh }}{12}{0}{5}
\beamer@sectionintoc {6}{\IeC {\CYRZ }\IeC {\cyra }\IeC {\cyrk }\IeC {\cyrl }\IeC {\cyryu }\IeC {\cyrch }\IeC {\cyre }\IeC {\cyrn }\IeC {\cyri }\IeC {\cyre }}{14}{0}{6}
