%!PS-Adobe-3.0 EPSF-3.0
%%Creator: MATLAB, The MathWorks, Inc. Version 8.1.0.604 (R2013a). Operating System: Linux 3.8.0-31-generic #46-Ubuntu SMP Tue Sep 10 20:03:44 UTC 2013 x86_64.
%%Title: /home/mikhail/Documents/наука/5. аспирантура/028 диэлектрическая проницаемость/Презентация СПФКС/Кулоновский потенциал/Vqk.eps
%%CreationDate: 11/23/2013  12:20:03
%%DocumentNeededFonts: Helvetica
%%DocumentProcessColors: Cyan Magenta Yellow Black
%%LanguageLevel: 2
%%Pages: 1
%%BoundingBox:    84   230   508   611
%%EndComments

%%BeginProlog
% MathWorks dictionary
/MathWorks 160 dict begin
% definition operators
/bdef {bind def} bind def
/ldef {load def} bind def
/xdef {exch def} bdef
/xstore {exch store} bdef
% operator abbreviations
/c  /clip ldef
/cc /concat ldef
/cp /closepath ldef
/gr /grestore ldef
/gs /gsave ldef
/mt /moveto ldef
/np /newpath ldef
/cm /currentmatrix ldef
/sm /setmatrix ldef
/rm /rmoveto ldef
/rl /rlineto ldef
/s {show newpath} bdef
/sc {setcmykcolor} bdef
/sr /setrgbcolor ldef
/sg /setgray ldef
/w /setlinewidth ldef
/j /setlinejoin ldef
/cap /setlinecap ldef
/rc {rectclip} bdef
/rf {rectfill} bdef
% page state control
/pgsv () def
/bpage {/pgsv save def} bdef
/epage {pgsv restore} bdef
/bplot /gsave ldef
/eplot {stroke grestore} bdef
% orientation switch
/portraitMode 0 def /landscapeMode 1 def /rotateMode 2 def
% coordinate system mappings
/dpi2point 0 def
% font control
/FontSize 0 def
/FMS {/FontSize xstore findfont [FontSize 0 0 FontSize neg 0 0]
  makefont setfont} bdef
/reencode {exch dup where {pop load} {pop StandardEncoding} ifelse
  exch dup 3 1 roll findfont dup length dict begin
  { 1 index /FID ne {def}{pop pop} ifelse } forall
  /Encoding exch def currentdict end definefont pop} bdef
/isroman {findfont /CharStrings get /Agrave known} bdef
/FMSR {3 1 roll 1 index dup isroman {reencode} {pop pop} ifelse
  exch FMS} bdef
/csm {1 dpi2point div -1 dpi2point div scale neg translate
 dup landscapeMode eq {pop -90 rotate}
  {rotateMode eq {90 rotate} if} ifelse} bdef
% line types: solid, dotted, dashed, dotdash
/SO { [] 0 setdash } bdef
/DO { [.5 dpi2point mul 4 dpi2point mul] 0 setdash } bdef
/DA { [6 dpi2point mul] 0 setdash } bdef
/DD { [.5 dpi2point mul 4 dpi2point mul 6 dpi2point mul 4
  dpi2point mul] 0 setdash } bdef
% macros for lines and objects
/L {lineto stroke} bdef
/MP {3 1 roll moveto 1 sub {rlineto} repeat} bdef
/AP {{rlineto} repeat} bdef
/PDlw -1 def
/W {/PDlw currentlinewidth def setlinewidth} def
/PP {closepath eofill} bdef
/DP {closepath stroke} bdef
/MR {4 -2 roll moveto dup  0 exch rlineto exch 0 rlineto
  neg 0 exch rlineto closepath} bdef
/FR {MR stroke} bdef
/PR {MR fill} bdef
/L1i {{currentfile picstr readhexstring pop} image} bdef
/tMatrix matrix def
/MakeOval {newpath tMatrix currentmatrix pop translate scale
0 0 1 0 360 arc tMatrix setmatrix} bdef
/FO {MakeOval stroke} bdef
/PO {MakeOval fill} bdef
/PD {currentlinewidth 2 div 0 360 arc fill
   PDlw -1 eq not {PDlw w /PDlw -1 def} if} def
/FA {newpath tMatrix currentmatrix pop translate scale
  0 0 1 5 -2 roll arc tMatrix setmatrix stroke} bdef
/PA {newpath tMatrix currentmatrix pop	translate 0 0 moveto scale
  0 0 1 5 -2 roll arc closepath tMatrix setmatrix fill} bdef
/FAn {newpath tMatrix currentmatrix pop translate scale
  0 0 1 5 -2 roll arcn tMatrix setmatrix stroke} bdef
/PAn {newpath tMatrix currentmatrix pop translate 0 0 moveto scale
  0 0 1 5 -2 roll arcn closepath tMatrix setmatrix fill} bdef
/vradius 0 def /hradius 0 def /lry 0 def
/lrx 0 def /uly 0 def /ulx 0 def /rad 0 def
/MRR {/vradius xdef /hradius xdef /lry xdef /lrx xdef /uly xdef
  /ulx xdef newpath tMatrix currentmatrix pop ulx hradius add uly
  vradius add translate hradius vradius scale 0 0 1 180 270 arc 
  tMatrix setmatrix lrx hradius sub uly vradius add translate
  hradius vradius scale 0 0 1 270 360 arc tMatrix setmatrix
  lrx hradius sub lry vradius sub translate hradius vradius scale
  0 0 1 0 90 arc tMatrix setmatrix ulx hradius add lry vradius sub
  translate hradius vradius scale 0 0 1 90 180 arc tMatrix setmatrix
  closepath} bdef
/FRR {MRR stroke } bdef
/PRR {MRR fill } bdef
/MlrRR {/lry xdef /lrx xdef /uly xdef /ulx xdef /rad lry uly sub 2 div def
  newpath tMatrix currentmatrix pop ulx rad add uly rad add translate
  rad rad scale 0 0 1 90 270 arc tMatrix setmatrix lrx rad sub lry rad
  sub translate rad rad scale 0 0 1 270 90 arc tMatrix setmatrix
  closepath} bdef
/FlrRR {MlrRR stroke } bdef
/PlrRR {MlrRR fill } bdef
/MtbRR {/lry xdef /lrx xdef /uly xdef /ulx xdef /rad lrx ulx sub 2 div def
  newpath tMatrix currentmatrix pop ulx rad add uly rad add translate
  rad rad scale 0 0 1 180 360 arc tMatrix setmatrix lrx rad sub lry rad
  sub translate rad rad scale 0 0 1 0 180 arc tMatrix setmatrix
  closepath} bdef
/FtbRR {MtbRR stroke } bdef
/PtbRR {MtbRR fill } bdef
/stri 6 array def /dtri 6 array def
/smat 6 array def /dmat 6 array def
/tmat1 6 array def /tmat2 6 array def /dif 3 array def
/asub {/ind2 exch def /ind1 exch def dup dup
  ind1 get exch ind2 get sub exch } bdef
/tri_to_matrix {
  2 0 asub 3 1 asub 4 0 asub 5 1 asub
  dup 0 get exch 1 get 7 -1 roll astore } bdef
/compute_transform {
  dmat dtri tri_to_matrix tmat1 invertmatrix 
  smat stri tri_to_matrix tmat2 concatmatrix } bdef
/ds {stri astore pop} bdef
/dt {dtri astore pop} bdef
/db {2 copy /cols xdef /rows xdef mul dup 3 mul string
  currentfile 
  3 index 0 eq {/ASCIIHexDecode filter}
  {/ASCII85Decode filter 3 index 2 eq {/RunLengthDecode filter} if }
  ifelse exch readstring pop
  dup 0 3 index getinterval /rbmap xdef
  dup 2 index dup getinterval /gbmap xdef
  1 index dup 2 mul exch getinterval /bbmap xdef pop pop}bdef
/it {gs np dtri aload pop moveto lineto lineto cp c
  cols rows 8 compute_transform 
  rbmap gbmap bbmap true 3 colorimage gr}bdef
/il {newpath moveto lineto stroke}bdef
currentdict end def
%%EndProlog

%%BeginSetup
MathWorks begin

0 cap

end
%%EndSetup

%%Page: 1 1
%%BeginPageSetup
%%PageBoundingBox:    84   230   508   611
MathWorks begin
bpage
%%EndPageSetup

%%BeginObject: obj1
bplot

/dpi2point 12 def
portraitMode 1008 7332 csm

    0     0  5098  4562 rc
85 dict begin %Colortable dictionary
/c0 { 0.000000 0.000000 0.000000 sr} bdef
/c1 { 1.000000 1.000000 1.000000 sr} bdef
/c2 { 0.900000 0.000000 0.000000 sr} bdef
/c3 { 0.000000 0.820000 0.000000 sr} bdef
/c4 { 0.000000 0.000000 0.800000 sr} bdef
/c5 { 0.910000 0.820000 0.320000 sr} bdef
/c6 { 1.000000 0.260000 0.820000 sr} bdef
/c7 { 0.000000 0.820000 0.820000 sr} bdef
c0
1 j
1 sg
   0    0 5099 4563 rf
6 w
0 3718 3951 0 0 -3718 734 4131 4 MP
PP
-3951 0 0 3718 3951 0 0 -3718 734 4131 5 MP stroke
4 w
DO
SO
6 w
0 sg
 734 4131 mt 4685 4131 L
 734  413 mt 4685  413 L
 734 4131 mt  734  413 L
4685 4131 mt 4685  413 L
 734 4131 mt 4685 4131 L
 734 4131 mt  734  413 L
 734 4131 mt  734 4091 L
 734  413 mt  734  452 L
2051 4131 mt 2051 4091 L
2051  413 mt 2051  452 L
3368 4131 mt 3368 4091 L
3368  413 mt 3368  452 L
4685 4131 mt 4685 4091 L
4685  413 mt 4685  452 L
 734 4131 mt  773 4131 L
4685 4131 mt 4645 4131 L
%%IncludeResource: font Helvetica
/Helvetica /ISOLatin1Encoding 144 FMSR

 415 4184 mt 
(-0.2) s
 734 3666 mt  773 3666 L
4685 3666 mt 4645 3666 L
 619 3719 mt 
(0) s
 734 3201 mt  773 3201 L
4685 3201 mt 4645 3201 L
 499 3254 mt 
(0.2) s
 734 2736 mt  773 2736 L
4685 2736 mt 4645 2736 L
 499 2789 mt 
(0.4) s
 734 2272 mt  773 2272 L
4685 2272 mt 4645 2272 L
 499 2325 mt 
(0.6) s
 734 1807 mt  773 1807 L
4685 1807 mt 4645 1807 L
 499 1860 mt 
(0.8) s
 734 1342 mt  773 1342 L
4685 1342 mt 4645 1342 L
 619 1395 mt 
(1) s
 734  877 mt  773  877 L
4685  877 mt 4645  877 L
 499  930 mt 
(1.2) s
 734  413 mt  773  413 L
4685  413 mt 4645  413 L
 499  466 mt 
(1.4) s
 734 4131 mt 4685 4131 L
 734  413 mt 4685  413 L
 734 4131 mt  734  413 L
4685 4131 mt 4685  413 L
gs 734 413 3952 3719 rc
DA
24 w
26 117 26 18 27 1 26 -6 26 -10 27 -13 26 -14 26 -15 
27 -16 26 -15 26 -15 27 -15 26 -13 26 -14 27 -13 26 -15 
26 -16 27 -19 26 -21 26 -24 27 -27 26 -27 26 -29 27 -29 
26 -29 26 -29 27 -27 26 -27 26 -26 27 -26 26 -28 26 -31 
27 -40 26 -58 26 -50 27 25 26 68 26 70 27 65 26 57 
26 50 27 42 26 36 26 28 27 22 26 15 26 9 27 3 
26 0 27 -1 26 -1 26 -2 27 -1 26 -2 26 -2 27 -6 
26 -1 26 5 27 7 26 11 26 14 27 16 26 21 26 23 
27 28 26 31 26 35 27 39 26 47 26 58 27 80 26 111 
26 137 27 147 26 145 26 138 27 130 26 123 26 116 27 109 
26 103 26 96 27 90 26 84 26 76 27 71 26 63 26 58 
27 50 26 45 26 38 27 32 26 26 26 21 27 14 26 9 
26 2 27 -6 26 -18 27 -30 26 -42 26 -52 27 -63 26 -71 
26 -78 27 -85 26 -90 26 -95 27 -97 26 -99 26 -99 27 -98 
26 -96 26 -94 27 -91 26 -86 26 -82 27 -77 26 -73 26 -68 
27 -62 26 -58 26 -52 27 -48 26 -44 26 -41 27 -37 26 -34 
26 -29 27 -25 26 -19 26 -15 27 -11 26 -5 26 -1 27 3 
26 6 26 9 27 11 26 12 26 15 27 21 26 28 26 33 
27 44 786 2695 146 MP stroke
DO
36 w
26 117 26 17 27 0 26 -5 26 -8 27 -7 26 -4 26 1 
27 7 26 16 26 25 27 36 26 47 26 56 27 65 26 72 
26 77 27 79 26 79 26 77 27 74 26 68 26 59 27 50 
26 36 26 23 27 6 26 -12 26 -32 27 -52 26 -74 26 -96 
27 -123 26 -152 26 -164 27 -119 26 -88 26 -82 27 -78 26 -71 
26 -62 27 -49 26 -35 26 -17 27 2 26 22 26 43 27 65 
26 -36 27 -32 26 -28 26 -24 27 -21 26 -18 26 -16 27 -19 
26 -14 26 -8 27 -8 26 -8 26 -10 27 -12 26 -16 26 -21 
27 -27 26 -32 26 -39 27 -46 26 -49 26 -46 27 -28 26 6 
26 38 27 51 26 49 26 41 27 34 26 27 26 24 27 20 
26 18 26 16 27 16 26 15 26 15 27 15 26 15 26 16 
27 16 26 17 26 17 27 17 26 18 26 18 27 19 26 19 
26 20 27 -17 26 -12 27 -7 26 -1 26 4 27 8 26 12 
26 17 27 20 26 23 26 25 27 25 26 26 26 25 27 26 
26 25 26 23 27 21 26 19 26 16 27 14 26 10 26 6 
27 4 26 2 26 -2 27 -4 26 -7 26 -9 27 -11 26 -14 
26 -12 27 -10 26 -9 26 -7 27 -4 26 0 26 3 27 6 
26 9 26 11 27 13 26 14 26 16 27 22 26 28 26 34 
27 44 786 2695 146 MP stroke
gr

36 w
DO
%%IncludeResource: font Helvetica
/Helvetica /ISOLatin1Encoding 180 FMSR

 238 2573 mt  -90 rotate
(V) s
90 rotate
%%IncludeResource: font Helvetica
/Helvetica /ISOLatin1Encoding 144 FMSR

 148 2453 mt  -90 rotate
(eff) s
90 rotate
 328 2453 mt  -90 rotate
(q) s
90 rotate
%%IncludeResource: font Helvetica
/Helvetica /ISOLatin1Encoding 180 FMSR

 238 2293 mt  -90 rotate
(, eV) s
90 rotate
%%IncludeResource: font Helvetica
/Helvetica /ISOLatin1Encoding 120 FMSR

 717 4174 mt 
( ) s
4669  455 mt 
( ) s
gs 734 413 3952 3719 rc
DD
24 w
26 117 26 18 27 1 26 -6 26 -10 27 -13 26 -14 26 -15 
27 -16 26 -15 26 -15 27 -15 26 -13 26 -14 27 -13 26 -15 
26 -16 27 -19 26 -21 26 -24 27 -27 26 -27 26 -29 27 -29 
26 -29 26 -29 27 -27 26 -27 26 -26 27 -26 26 -28 26 -31 
27 -40 26 -58 26 -50 27 25 26 68 26 70 27 65 26 57 
26 50 27 42 26 36 26 28 27 22 26 15 26 9 27 3 
26 -1 27 -5 26 -8 26 -10 27 -14 26 -17 26 -22 27 -29 
26 -30 26 -28 27 -31 26 -34 26 -38 27 -42 26 -46 26 -49 
27 -55 26 -58 26 -63 27 -65 26 -65 26 -57 27 -34 26 7 
26 46 27 64 26 65 26 60 27 53 26 49 26 46 27 42 
26 40 26 39 27 36 26 35 26 33 27 30 26 29 26 27 
27 24 26 21 26 20 27 16 26 13 26 11 27 8 26 4 
26 2 27 1 26 2 27 4 26 6 26 6 27 8 26 9 
26 11 27 12 26 13 26 13 27 13 26 13 26 14 27 15 
26 14 26 14 27 13 26 14 26 12 27 11 26 9 26 8 
27 7 26 5 26 4 27 2 26 0 26 -2 27 -5 26 -6 
26 -6 27 -4 26 -4 26 -3 27 0 26 2 26 5 27 7 
26 10 26 11 27 12 26 13 26 16 27 21 26 28 26 33 
27 44 786 2695 146 MP stroke
SO
6 w
gr

6 w
SO
1 sg
0 681 1234 0 0 -681 3392 1154 4 MP
PP
-1234 0 0 681 1234 0 0 -681 3392 1154 5 MP stroke
4 w
DO
SO
6 w
0 sg
3392 1154 mt 4626 1154 L
3392  473 mt 4626  473 L
3392 1154 mt 3392  473 L
4626 1154 mt 4626  473 L
3392 1154 mt 4626 1154 L
3392 1154 mt 3392  473 L
3392 1154 mt 4626 1154 L
3392  473 mt 4626  473 L
3392 1154 mt 3392  473 L
4626 1154 mt 4626  473 L
%%IncludeResource: font Helvetica
/Helvetica /ISOLatin1Encoding 144 FMSR

3824  643 mt 
(k=\() s
%%IncludeResource: font Symbol
/Symbol /ISOLatin1Encoding 144 FMSR

4028  643 mt 
(p) s
%%IncludeResource: font Helvetica
/Helvetica /ISOLatin1Encoding 144 FMSR

4107  643 mt 
(, 0\)) s
gs 3392 473 1235 682 rc
DA
24 w
332 0 3458 591 2 MP stroke
SO
gr

24 w
3824  847 mt 
(k=\() s
%%IncludeResource: font Symbol
/Symbol /ISOLatin1Encoding 144 FMSR

4028  847 mt 
(p) s
%%IncludeResource: font Helvetica
/Helvetica /ISOLatin1Encoding 144 FMSR

4107  847 mt 
(/2, ) s
%%IncludeResource: font Symbol
/Symbol /ISOLatin1Encoding 144 FMSR

4307  847 mt 
(p) s
%%IncludeResource: font Helvetica
/Helvetica /ISOLatin1Encoding 144 FMSR

4386  847 mt 
(/2\)) s
gs 3392 473 1235 682 rc
DO
36 w
332 0 3458 794 2 MP stroke
SO
gr

36 w
%%IncludeResource: font Symbol
/Symbol /ISOLatin1Encoding 144 FMSR

3824  997 mt 
(n) s
%%IncludeResource: font Helvetica
/Helvetica /ISOLatin1Encoding 108 FMSR

3899 1069 mt 
(2) s
%%IncludeResource: font Helvetica
/Helvetica /ISOLatin1Encoding 144 FMSR

3959  997 mt 
(=0) s
gs 3392 473 1235 682 rc
DD
24 w
332 0 3458 1016 2 MP stroke
SO
6 w
gr

6 w
4610 4366 mt 
(\(0,0\)) s
3236 4361 mt 
(\() s
%%IncludeResource: font Symbol
/Symbol /ISOLatin1Encoding 144 FMSR

3283 4361 mt 
(p) s
%%IncludeResource: font Helvetica
/Helvetica /ISOLatin1Encoding 144 FMSR

3362 4361 mt 
(,) s
%%IncludeResource: font Symbol
/Symbol /ISOLatin1Encoding 144 FMSR

3402 4361 mt 
(p) s
%%IncludeResource: font Helvetica
/Helvetica /ISOLatin1Encoding 144 FMSR

3481 4361 mt 
(\)) s
2009 4352 mt 
(\() s
%%IncludeResource: font Symbol
/Symbol /ISOLatin1Encoding 144 FMSR

2056 4352 mt 
(p) s
%%IncludeResource: font Helvetica
/Helvetica /ISOLatin1Encoding 144 FMSR

2135 4352 mt 
(,0\)) s
 753 4371 mt 
(\(0,0\)) s

end %%Color Dict

eplot
%%EndObject

epage
end

showpage

%%Trailer
%%EOF
